…
## Compare estimates

``` r
tibble(model = c("model_20m", "model_30m", "model_40m", "model_50m", "model_60m", "model_70m")) %>% 
  mutate(fit   = purrr::map(model, get)) %>% 
  mutate(tidy  = purrr::map(fit, tidy)) %>% 
  unnest(tidy) %>% 
  filter(effect == "fixed" & !grepl("(Intercept)", term)) -> my_coef_tab

my_coef_tab
```

    ## # A tibble: 24 × 10
    ##    model     fit       effect component group term   estimate std.error conf.low
    ##    <chr>     <list>    <chr>  <chr>     <chr> <chr>     <dbl>     <dbl>    <dbl>
    ##  1 model_20m <brmsfit> fixed  cond      <NA>  conne…  0.0297     0.0549  -0.0775
    ##  2 model_20m <brmsfit> fixed  cond      <NA>  phi_c…  0.0108     0.0841  -0.169 
    ##  3 model_20m <brmsfit> fixed  cond      <NA>  zoi_c… -0.560      0.117   -0.816 
    ##  4 model_20m <brmsfit> fixed  cond      <NA>  coi_c…  0.678      0.240    0.217 
    ##  5 model_30m <brmsfit> fixed  cond      <NA>  conne…  0.0461     0.0620  -0.0779
    ##  6 model_30m <brmsfit> fixed  cond      <NA>  phi_c… -0.00162    0.108   -0.237 
    ##  7 model_30m <brmsfit> fixed  cond      <NA>  zoi_c… -0.609      0.154   -0.937 
    ##  8 model_30m <brmsfit> fixed  cond      <NA>  coi_c…  0.761      0.312    0.211 
    ##  9 model_40m <brmsfit> fixed  cond      <NA>  conne…  0.0610     0.0721  -0.0859
    ## 10 model_40m <brmsfit> fixed  cond      <NA>  phi_c… -0.00811    0.131   -0.288 
    ## # … with 14 more rows, and 1 more variable: conf.high <dbl>
…
