…
Has changing alpha changed the results of our model?

``` r
tibble(model = c("model_05m","model_15m", "model_10m", "model_20m", "model_30m", 
                 "model_40m", "model_50m", "model_60m")) %>% 
  mutate(fit   = purrr::map(model, get)) %>% 
  mutate(tidy  = purrr::map(fit, tidy)) %>% 
  unnest(tidy) %>% 
  filter(effect == "fixed" & !grepl("(Intercept)", term)) -> my_coef_tab

my_coef_tab
```

    ## # A tibble: 32 × 10
    ##    model     fit       effect component group term   estimate std.error conf.low
    ##    <chr>     <list>    <chr>  <chr>     <chr> <chr>     <dbl>     <dbl>    <dbl>
    ##  1 model_05m <brmsfit> fixed  cond      <NA>  conne…   0.0337    0.0445  -0.0571
    ##  2 model_05m <brmsfit> fixed  cond      <NA>  phi_c…   0.0229    0.0418  -0.0577
    ##  3 model_05m <brmsfit> fixed  cond      <NA>  zoi_c…  -0.602     0.148   -0.933 
    ##  4 model_05m <brmsfit> fixed  cond      <NA>  coi_c…   0.755     0.232    0.297 
    ##  5 model_15m <brmsfit> fixed  cond      <NA>  conne…   0.0576    0.0755  -0.103 
    ##  6 model_15m <brmsfit> fixed  cond      <NA>  phi_c…   0.0266    0.0834  -0.155 
    ##  7 model_15m <brmsfit> fixed  cond      <NA>  zoi_c…  -1.35      0.309   -2.03  
    ##  8 model_15m <brmsfit> fixed  cond      <NA>  coi_c…   1.48      0.506    0.570 
    ##  9 model_10m <brmsfit> fixed  cond      <NA>  conne…   0.0364    0.0634  -0.0952
    ## 10 model_10m <brmsfit> fixed  cond      <NA>  phi_c…   0.0270    0.0597  -0.0940
    ## # ℹ 22 more rows
    ## # ℹ 1 more variable: conf.high <dbl>
…
